id;nome;eta;sex;segni;note
1;Account Salvador;84857;M;Direct multi-laterale;secondaria virtual
2;Comoro soluzioni spedizioni;8755;M;Soft Handmade;deposit
3;persistente;25960;F;Martin;riallineata alarm
4;transizionali Configuration Small;21965;F;Forward Vicenza;Utilizzazione 1080p
5;input Steel;72025;M;quarta rivoluzionari;Borders Keyboard ore
6;array;8845;M;Borders;Successo
7;massimizzate Bedfordshire Practical;11700;F;Investment Bacon;Wooden Forward auxiliary
8;Electronics;11262;F;ROI HDD;Chicken synthesize PNG
9;India PCI COM;10099;M;Carbonia-Iglesias Brazilian Car;reti asincrona
10;Cameroon;1153;M;Assurance;multi-laterale Bedfordshire Borders
